Nodes	Nodes Gene Ontology
YBL093C	GO:0070847
YBR193C	GO:0070847
YBR253W	GO:0070847
YDL005C	GO:0070847
YDR308C	GO:0070847
YER022W	GO:0070847
YGL025C	GO:0070847
YGL127C	GO:0070847
YGR104C	GO:0070847
YHR041C	GO:0070847
YHR058C	GO:0070847
YLR071C	GO:0070847
YMR112C	GO:0070847
YNL236W	GO:0070847
YNR010W	GO:0070847
YOL051W	GO:0070847
YOL135C	GO:0070847
YOR174W	GO:0070847
YPR070W	GO:0070847
YPR168W	GO:0070847
YBR289W	GO:0015616
YCR020W-B	GO:0015616
YCR052W	GO:0015616
YDR073W	GO:0015616
YDR303C	GO:0015616
YFL049W	GO:0015616
YFR037C	GO:0015616
YGR056W	GO:0015616
YGR275W	GO:0015616
YHL025W	GO:0015616
YHR056C	GO:0015616
YIL126W	GO:0015616
YJL176C	GO:0015616
YKR008W	GO:0015616
YLR033W	GO:0015616
YLR321C	GO:0015616
YLR357W	GO:0015616
YML127W	GO:0015616
YMR033W	GO:0015616
YMR091C	GO:0015616
YNR023W	GO:0015616
YOR290C	GO:0015616
YPL016W	GO:0015616
YPR034W	GO:0015616
YBR081C	GO:0000124
YBR198C	GO:0000124
YCL010C	GO:0000124
YDR145W	GO:0000124
YDR167W	GO:0000124
YDR176W	GO:0000124
YDR448W	GO:0000124
YER164W	GO:0000124
YGL066W	GO:0000124
YGL112C	GO:0000124
YGR252W	GO:0000124
YHR099W	GO:0000124
YLR055C	GO:0000124
YMR223W	GO:0000124
YMR236W	GO:0000124
YOL148C	GO:0000124
YPL047W	GO:0000124
YPL254W	GO:0000124
YBR154C	GO:0042797
YDL150W	GO:0042797
YDR045C	GO:0042797
YGL043W	GO:0042797
YHR143W-A	GO:0042797
YJL011C	GO:0042797
YKL144C	GO:0042797
YKR025W	GO:0042797
YNL113W	GO:0042797
YNL151C	GO:0042797
YNR003C	GO:0042797
YOR116C	GO:0042797
YOR207C	GO:0042797
YOR210W	GO:0042797
YOR224C	GO:0042797
YPR110C	GO:0042797
YPR187W	GO:0042797
YPR190C	GO:0042797
YBR267W	GO:0030687
YCL054W	GO:0030687
YDL031W	GO:0030687
YDR101C	GO:0030687
YER006W	GO:0030687
YER126C	GO:0030687
YFL002C	GO:0030687
YGL111W	GO:0030687
YGR103W	GO:0030687
YGR218W	GO:0030687
YGR245C	GO:0030687
YHR085W	GO:0030687
YHR170W	GO:0030687
YLR074C	GO:0030687
YLR106C	GO:0030687
YNL002C	GO:0030687
YNL110C	GO:0030687
YNR053C	GO:0030687
YPL093W	GO:0030687
YPL211W	GO:0030687
YPR016C	GO:0030687
YAL011W	GO:0000812
YBR231C	GO:0000812
YDL070W	GO:0000812
YDR190C	GO:0000812
YDR334W	GO:0000812
YDR485C	GO:0000812
YFL039C	GO:0000812
YGR002C	GO:0000812
YJL081C	GO:0000812
YLR085C	GO:0000812
YLR385C	GO:0000812
YLR399C	GO:0000812
YML041C	GO:0000812
YNL107W	GO:0000812
YPL235W	GO:0000812
YDL002C	GO:0031011
YER092W	GO:0031011
YFL013C	GO:0031011
YGL150C	GO:0031011
YLR052W	GO:0031011
YNL059C	GO:0031011
YNL215W	GO:0031011
YOR141C	GO:0031011
YPL129W	GO:0031011
YAL013W	GO:0033698
YDL076C	GO:0033698
YDR207C	GO:0033698
YIL084C	GO:0033698
YMR263W	GO:0033698
YNL097C	GO:0033698
YOL004W	GO:0033698
YPL139C	GO:0033698
YPL181W	GO:0033698
YDR359C	GO:0035267
YEL018W	GO:0035267
YFL024C	GO:0035267
YHR090C	GO:0035267
YJR082C	GO:0035267
YNL136W	GO:0035267
YOR244W	GO:0035267
YPR023C	GO:0035267
YDR156W	GO:0042790
YJL148W	GO:0042790
YJR063W	GO:0042790
YNL248C	GO:0042790
YOR340C	GO:0042790
YOR341W	GO:0042790
YPR010C	GO:0042790
YDR211W	GO:0005851
YGR083C	GO:0005851
YJR007W	GO:0005851
YKR026C	GO:0005851
YLR291C	GO:0005851
YPL237W	GO:0005851
YDL143W	GO:0051082
YDR127W	GO:0051082
YDR171W	GO:0051082
YDR188W	GO:0051082
YIL142W	GO:0051082
YJL111W	GO:0051082
YKL029C	GO:0051082
YKL104C	GO:0051082
YMR186W	GO:0051082
YNL212W	GO:0051082
YPR035W	GO:0051082
YCR042C	GO:0005669
YER148W	GO:0005669
YGR274C	GO:0005669
YML015C	GO:0005669
YML098W	GO:0005669
YML114C	GO:0005669
YMR227C	GO:0005669
YPL011C	GO:0005669
YGL019W	GO:0006359
YHR131C	GO:0006359
YIL035C	GO:0006359
YLR407W	GO:0006359
YOR039W	GO:0006359
YOR061W	GO:0006359
YEL056W	GO:0000123
YLL022C	GO:0000123
YNL030W	GO:0000123
YPL001W	GO:0000123
YBR279W	GO:2001173
YGL244W	GO:2001173
YLR418C	GO:2001173
YOR123C	GO:2001173
YCR009C	GO:0051666
YDR388W	GO:0051666
YGL242C	GO:0051666
YKL129C	GO:0051666
YLR429W	GO:0051666
YMR109W	GO:0051666
YBL046W	GO:2000002
YDR075W	GO:2000002
YKL142W	GO:2000002
YNL201C	GO:2000002
YAL029C	GO:0007533
YBR130C	GO:0007533
YKL130C	GO:0007533
YOR035C	GO:0007533
YGL133W	GO:0008623
YJL065C	GO:0008623
YOR304W	GO:0008623
YCR072C	GO:0005840
YGR175C	GO:0005840
YHR020W	GO:0005840
YJR077C	GO:0005840
YNL078W	GO:0005840
YOL070C	GO:0005840
YDR404C	GO:0003899
YGL070C	GO:0003899
YJL140W	GO:0003899
YIL021W	GO:0001055
YOL005C	GO:0001055
YOR151C	GO:0001055
YDL083C	GO:0006412
YDL136W	GO:0006412
YLR325C	GO:0006412
YLR406C	GO:0006412
YBR025C	GO:0004723
YDL112W	GO:0004723
YER139C	GO:0004723
YGR233C	GO:0004723
YJL005W	GO:0004723
YKL190W	GO:0004723
YLR433C	GO:0004723
YML057W	GO:0004723
YPL153C	GO:0004723
YGL106W	GO:0016460
YHR023W	GO:0016460
YPR188C	GO:0016460
YDR129C	GO:0043332
YER071C	GO:0043332
YIR003W	GO:0043332
YNL106C	GO:0043332
YPR171W	GO:0043332
YBL002W	GO:0006334
YBR009C	GO:0006334
YDR224C	GO:0006334
YKR048C	GO:0006334
YMR192W	GO:0005798
YPL249C	GO:0005798
YOR124C	GO:0016579
YOR138C	GO:0016579
YGR240C	GO:0005945
YMR205C	GO:0005945
YKL182W	GO:0005835
YPL231W	GO:0005835
YCL024W	GO:0044879
YDR507C	GO:0044879
YNL037C	GO:0004449
YOR136W	GO:0004449
YIL050W	GO:0031647
YPL031C	GO:0031647
YBR278W	GO:0090399
YDR121W	GO:0090399
YIL034C	GO:0008290
YKL007W	GO:0008290
YGR086C	GO:0036286
YPL004C	GO:0036286
YDR502C	GO:0004478
YLR180W	GO:0004478
YFR009W	GO:0006448
YGL195W	GO:0006448
YBR245C	GO:0036436
YFR013W	GO:0036436
YGL207W	GO:0034724
YML069W	GO:0034724
YPR052C	GO:0034724
YCR081W	GO:0000411
YNL025C	GO:0000411
YGR005C	GO:0001174
YGR186W	GO:0001174
YHR197W	GO:0097344
YNL182C	GO:0097344
YDL140C	GO:0043566
YML010W	GO:0043566
YDR443C	GO:0000435
YPL042C	GO:0000435
YJL084C	GO:2000397
YKR021W	GO:2000397
YCR060W	GO:0051087
YDR214W	GO:0051087
YFL037W	GO:0045298
YML124C	GO:0045298
YOR156C	GO:0003690
YPR175W	GO:0003690
YOL001W	GO:0016538
YPL219W	GO:0016538
YGL099W	GO:0030437
YMR139W	GO:0030437
YIL153W	GO:0043618
YJL115W	GO:0043618
YEL022W	GO:0019898
YLL040C	GO:0019898
YCR088W	GO:0005938
YDR490C	GO:0005938
YNL138W	GO:0003779
YOR281C	GO:0003779
YFL045C	GO:0010494
YMR012W	GO:0010494
YBR010W	GO:0043505
YNL031C	GO:0043505
YOL054W	GO:0004842
YPR093C	GO:0004842
YDR005C	GO:0061587
YDR225W	GO:0061587
YIL094C	GO:0061587
YMR075W	GO:0061587
YMR005W	GO:0001075
YMR172W	GO:0001075
YKR001C	GO:0008017
YOR058C	GO:0008017
YMR072W	GO:0000001
YOR326W	GO:0000001
YBR109C	GO:0042991
YGL241W	GO:0042991
YNL330C	GO:0000083
YOL145C	GO:0000083
YBL087C	GO:0070180
YKL009W	GO:0070180
YBL003C	GO:0006342
YGR063C	GO:0006342
YOL017W	GO:0006342
YBR095C	GO:0001403
YDR392W	GO:0001403
YER125W	GO:0042493
YML007W	GO:0042493
YGL151W	GO:0006357
YOL012C	GO:0006357
YDL115C	GO:0005515
YHR034C	GO:0005515
YPL082C	GO:0005515
