Iteration	Modularity	QGO	NGO	Clusters Mean Density
0	-0.013467126963089967	0.0	325.0	0.02619655780575321
1	0.6228639252331784	0.28307692307692306	325.0	0.2717632498364993
2	0.711733603964049	0.48615384615384616	325.0	0.3385694503410085
3	0.7156443693199946	0.5046153846153846	325.0	0.34450835350477194
4	0.7149904212173164	0.5138461538461538	325.0	0.3431512652933857
5	0.7128119955257505	0.5292307692307693	325.0	0.41650815702989774
6	0.706362665915978	0.5538461538461539	325.0	0.39391865786809177
7	0.7038170950753363	0.563076923076923	325.0	0.42085574517174346
8	0.702643881038744	0.5692307692307692	325.0	0.4276152982197843
9	0.7021920340401808	0.5753846153846154	325.0	0.45210486651274734
10	0.6999057069116729	0.5815384615384616	325.0	0.473782164553966
11	0.6998027879364662	0.5876923076923077	325.0	0.49680759205458913
12	0.6975365463568252	0.5938461538461538	325.0	0.5172848751608938
13	0.6956642306580846	0.6	325.0	0.5352432864482373
14	0.6914982698401623	0.6061538461538462	325.0	0.5504311356122178
15	0.6922384768116235	0.6123076923076923	325.0	0.5331122735397475
16	0.6700500176877394	0.64	325.0	0.5361151064393957
17	0.6513799550581956	0.6492307692307693	325.0	0.5458846031721057
18	0.6542184012276788	0.6646153846153846	325.0	0.5439068654914216
19	0.6487524850027903	0.6707692307692308	325.0	0.5559911567220761
20	0.6488837417291132	0.676923076923077	325.0	0.5436858720624975
21	0.6428817437619581	0.6892307692307692	325.0	0.5332003954647997
22	0.6425505657585301	0.6953846153846154	325.0	0.5473418887716657
23	0.6314415445133129	0.72	325.0	0.5610584105082203
24	0.6321015649912305	0.72	325.0	0.5627651052952417
25	0.6131940569196425	0.7261538461538461	325.0	0.5720143784333227
26	0.6049090015644935	0.7323076923076923	325.0	0.581946731199806
27	0.599475938446668	0.7384615384615385	325.0	0.5648251664084287
28	0.5914171179946595	0.7507692307692307	325.0	0.5637099416163784
29	0.5891466724629307	0.7569230769230769	325.0	0.5479483196300413
30	0.5883429391043533	0.7630769230769231	325.0	0.5636674284319305
31	0.5886467135682406	0.7692307692307693	325.0	0.5528384600593484
32	0.5845438120316492	0.7753846153846153	325.0	0.5351388337153042
33	0.5820837215501443	0.7815384615384615	325.0	0.5346806781802605
34	0.5803487349529662	0.7876923076923077	325.0	0.5203351939664157
35	0.5662472783302782	0.8	325.0	0.5221652972555353
36	0.5607759125378674	0.8153846153846154	325.0	0.5136652928757236
37	0.5551124105648122	0.8338461538461538	325.0	0.5250659839405921
38	0.5415657199158964	0.8430769230769231	325.0	0.5228495242442286
39	0.5377809174206791	0.8461538461538461	325.0	0.523857811543837
40	0.5335372613400828	0.8553846153846154	325.0	0.5242623405792253
41	0.5197883138851238	0.8707692307692307	325.0	0.5124941320239907
42	0.5164089592135683	0.8738461538461538	325.0	0.5209075896119508
43	0.513184527961575	0.8830769230769231	325.0	0.5063855788816717
44	0.5123009195133131	0.8861538461538462	325.0	0.5208538357067768
45	0.5080561735192125	0.8984615384615384	325.0	0.5182604287506248
46	0.5080762590680803	0.9046153846153846	325.0	0.5095876636639505
47	0.5075639997209821	0.9107692307692308	325.0	0.5042970626985972
48	0.5022142371352835	0.9138461538461539	325.0	0.5122618343061264
49	0.49959097103196726	0.92	325.0	0.5213420296244665
50	0.4975791464046556	0.9261538461538461	325.0	0.5249433786922503
51	0.4948610578264508	0.9353846153846154	325.0	0.5191957207163478
52	0.49544198172433007	0.9446153846153846	325.0	0.5132391625952094
53	0.4930156785614638	0.9476923076923077	325.0	0.5126782264799626
